# TTE-005
# Starting scenario: Test
ok 1 - Chrome Process Created
ok 2 - Username_or_Email.DoSetText(["wp_admin"])
ok 3 - Password.DoSetText(["Testing123!"])
ok 4 - wp_submit.DoClick([])
ok 5 - TTE_Site_Title.DoClick([])
ok 6 - Hello_world_.DoClick([])
ok 7 - Comment.DoSetText(["foobar this is a comment 1569341659"])
ok 8 - submit.DoClick([])
ok 9 - Match found for: foobar_this_is_a_comment, probability: 99.80%
ok 10 - Verify that: InnerText=foobar this is a comment
ok 11 - Match found for: September_23__2019_at_9_32_pm, probability: 99.04%
ok 12 - Verify that: InnerText Contains Today's Date
ok 13 - Howdy__wp_admin.DoMouseMove([5,5])
ok 14 - Log_Out.DoClick([])
ok 15 - login.DoClick([])
ok 16 - Verify that: InnerText=	You are now logged out.
# 
ok 17 - TTE-005
