# TTE-007
# Starting scenario: RVLSpecialEntryPoint
ok 1 - Add_Media.DoClick([])
ok 2 - Verify that: Class=thumbnail
ok 3 - Close_media_panel.DoClick([])
ok 4 - Howdy__wp_admin.DoMouseMove([5,5])
ok 5 - Log_Out.DoClick([])
ok 6 - Verify that: InnerText=	You are now logged out.
# 
ok 7 - TTE-007
